top_test.vcd
$date
	Fri Jun 30 16:19:38 2017
$end
$version
	Icarus Verilog
$end
$timescale
	1ps
$end
$scope module test $end
$scope module top0 $end
$var wire 8 ! alu_op [7:0] $end
$var wire 28 " alu_out [27:0] $end
$var wire 5 # btn [4:0] $end
$var wire 1 $ clk $end
$var wire 28 % cnt [27:0] $end
$var wire 28 & dec_data [27:0] $end
$var wire 4 ' dst [3:0] $end
$var wire 1 ( mclk $end
$var wire 28 ) mem_data [27:0] $end
$var wire 1 * mem_we $end
$var wire 44 + op [43:0] $end
$var wire 28 , ord1 [27:0] $end
$var wire 28 - ord2 [27:0] $end
$var wire 28 . ord3 [27:0] $end
$var wire 28 / ord4 [27:0] $end
$var wire 28 0 ord5 [27:0] $end
$var wire 12 1 pc_in [11:0] $end
$var wire 12 2 pc_out [11:0] $end
$var wire 1 3 pc_we $end
$var wire 28 4 reg_data0 [27:0] $end
$var wire 28 5 reg_data1 [27:0] $end
$var wire 1 6 reg_we $end
$var wire 1 7 rst_n $end
$var wire 12 8 seg [11:0] $end
$var wire 1 9 sel1 $end
$var wire 28 : sel1_out [27:0] $end
$var wire 1 ; sel2 $end
$var wire 28 < sel2_out [27:0] $end
$var wire 4 = src0 [3:0] $end
$var wire 4 > src1 [3:0] $end
$var wire 1 ? zf $end
$var wire 1 @ zf_out $end
$scope module s1 $end
$var wire 28 A in0 [27:0] $end
$var wire 28 B in1 [27:0] $end
$var wire 1 9 sel $end
$var reg 28 C out [27:0] $end
$upscope $end
$scope module s2 $end
$var wire 28 D in0 [27:0] $end
$var wire 28 E in1 [27:0] $end
$var wire 1 ; sel $end
$var reg 28 F out [27:0] $end
$upscope $end
$scope module r0 $end
$var wire 28 G answer [27:0] $end
$var wire 1 $ clk $end
$var wire 28 H cnt [27:0] $end
$var wire 1 I comp $end
$var wire 28 J counter [27:0] $end
$var wire 28 K data [27:0] $end
$var wire 28 L data0 [27:0] $end
$var wire 28 M data1 [27:0] $end
$var wire 4 N dst [3:0] $end
$var wire 28 O ord1 [27:0] $end
$var wire 28 P ord2 [27:0] $end
$var wire 28 Q ord3 [27:0] $end
$var wire 28 R ord4 [27:0] $end
$var wire 28 S ord5 [27:0] $end
$var wire 1 7 rst_n $end
$var wire 4 T src0 [3:0] $end
$var wire 4 U src1 [3:0] $end
$var wire 1 6 we $end
$upscope $end
$scope module a0 $end
$var wire 28 V in0 [27:0] $end
$var wire 28 W in1 [27:0] $end
$var wire 8 X op [7:0] $end
$var reg 28 Y out [27:0] $end
$var reg 1 Z zf $end
$upscope $end
$scope module mem0 $end
$var wire 28 [ addr [27:0] $end
$var wire 1 $ clk $end
$var wire 28 \ in [27:0] $end
$var wire 8 ] mem0 [7:0] $end
$var wire 8 ^ mem1 [7:0] $end
$var wire 8 _ mem10 [7:0] $end
$var wire 8 ` mem11 [7:0] $end
$var wire 8 a mem12 [7:0] $end
$var wire 8 b mem13 [7:0] $end
$var wire 8 c mem14 [7:0] $end
$var wire 8 d mem15 [7:0] $end
$var wire 8 e mem16 [7:0] $end
$var wire 8 f mem17 [7:0] $end
$var wire 8 g mem18 [7:0] $end
$var wire 8 h mem19 [7:0] $end
$var wire 8 i mem2 [7:0] $end
$var wire 8 j mem20 [7:0] $end
$var wire 8 k mem3 [7:0] $end
$var wire 8 l mem4 [7:0] $end
$var wire 8 m mem5 [7:0] $end
$var wire 8 n mem6 [7:0] $end
$var wire 8 o mem7 [7:0] $end
$var wire 8 p mem8 [7:0] $end
$var wire 8 q mem9 [7:0] $end
$var wire 28 r out [27:0] $end
$var wire 1 7 rst_n $end
$var wire 1 * we $end
$var integer 32 s i [31:0] $end
$upscope $end
$scope module pc0 $end
$var wire 1 $ clk $end
$var wire 12 t pc_in [11:0] $end
$var wire 1 7 rst_n $end
$var wire 1 3 we $end
$var reg 12 u pc_out [11:0] $end
$upscope $end
$scope module imem0 $end
$var wire 12 v pc [11:0] $end
$var reg 44 w op [43:0] $end
$upscope $end
$scope module zf0 $end
$var wire 1 $ clk $end
$var wire 1 7 rst_n $end
$var wire 1 ? zf_in $end
$var reg 1 x zf_out $end
$upscope $end
$scope module dec1 $end
$var wire 44 y op [43:0] $end
$var wire 1 @ zf $end
$var reg 8 z alu_op [7:0] $end
$var reg 28 { data [27:0] $end
$var reg 4 | dst [3:0] $end
$var reg 1 } mem_we $end
$var reg 12 ~ pc_in [11:0] $end
$var reg 1 !" pc_we $end
$var reg 1 "" reg_we $end
$var reg 1 #" sel1 $end
$var reg 1 $" sel2 $end
$var reg 4 %" src0 [3:0] $end
$var reg 4 &" src1 [3:0] $end
$upscope $end
$scope module io0 $end
$var wire 5 '" btn [4:0] $end
$var wire 1 $ clk $end
$var wire 28 (" cnt [27:0] $end
$var wire 1 )" comp $end
$var wire 28 *" ord1 [27:0] $end
$var wire 28 +" ord2 [27:0] $end
$var wire 28 ," ord3 [27:0] $end
$var wire 28 -" ord4 [27:0] $end
$var wire 28 ." ord5 [27:0] $end
$var wire 1 7 rst_n $end
$var reg 5 /" btn_flag [4:0] $end
$var reg 12 0" count [11:0] $end
$var reg 2 1" digit [1:0] $end
$var reg 5 2" num [4:0] $end
$var reg 12 3" seg [11:0] $end
$upscope $end
$scope module div0 $end
$var wire 1 $ clk $end
$var wire 1 ( mclk $end
$var wire 1 7 rst_n $end
$var reg 2 4" cnt [1:0] $end
$upscope $end
$upscope $end
$upscope $end
$enddefinitions $end
#0
$dumpvars
bx 4"
bx 3"
bx 2"
bx 1"
bx 0"
bx /"
bz ."
bz -"
bz ,"
bz +"
bz *"
z)"
bz ("
b0 '"
bx &"
bx %"
x$"
x#"
x""
x!"
bx ~
x}
bx |
bx {
bx z
bx y
xx
bx w
bx v
bx u
bx t
bx s
b0xxxxxxxx r
bz q
bz p
bz o
bz n
bz m
bz l
bz k
bz j
bz i
bz h
bz g
bz f
bz e
bz d
bz c
bz b
bz a
bz `
bz _
bz ^
bz ]
bx \
bx [
xZ
bx Y
bx X
bx W
bx V
bx U
bx T
bz S
bz R
bz Q
bz P
bz O
bx N
bx M
bx L
bx K
bz J
zI
bz H
bz G
bx F
b0xxxxxxxx E
bx D
bx C
bx B
bx A
x@
x?
bx >
bx =
bx <
x;
bx :
x9
bx 8
07
x6
bx 5
bx 4
x3
bx 2
bx 1
bz 0
bz /
bz .
bz -
bz ,
bx +
x*
b0xxxxxxxx )
0(
bx '
bx &
bz %
x$
b0 #
bx "
bx !
$end
#50
b1010000000000000000000000000 F
b1010000000000000000000000000 <
b1010000000000000000000000000 K
0Z
0?
b1010000000000000000000000000 Y
b1010000000000000000000000000 "
b1010000000000000000000000000 D
b1010000000000000000000000000 \
b0 C
b0 :
b0 V
b0 )
b0 E
b0 r
0}
0*
b0 {
b0 &
b0 A
0$"
0;
0#"
09
1""
16
b0 ~
b0 1
b0 t
b0 %"
b1010110111101011010101100111 4
b1010110111101011010101100111 B
b1010110111101011010101100111 L
b0 =
b0 T
b0 &"
b1010110111101011010101100111 5
b1010110111101011010101100111 M
b1010110111101011010101100111 W
b1010110111101011010101100111 [
b0 >
b0 U
b10 |
b10 '
b10 N
b1110 z
b1110 !
b1110 X
b1110001000000000000000000000000000000000 w
b1110001000000000000000000000000000000000 +
b1110001000000000000000000000000000000000 y
0!"
03
b0 0
b0 S
b0 ."
b0 /
b0 R
b0 -"
b0 .
b0 Q
b0 ,"
b0 -
b0 P
b0 +"
b0 ,
b0 O
b0 *"
b0 %
b0 H
b0 ("
b0 J
b1010110111101011010101100111 G
b0 j
b0 h
b0 g
b0 f
b0 e
b0 d
b0 c
b0 b
b0 a
b0 `
b0 _
b0 q
b0 p
b0 o
b0 n
b0 m
b0 l
b0 k
b0 i
b0 ^
b0 ]
b0 u
b0 2
b0 v
0x
0@
b0 /"
b0 0"
b0 3"
b0 8
b0 1"
b0 2"
b100000000 s
1$
b0 4"
1(
#100
0(
#150
b1 4"
1(
17
#200
0(
#250
0$
b10 4"
1(
#300
0(
#350
b11 4"
1(
#400
0(
#450
b0 F
b0 <
b0 K
b0 Y
b0 "
b0 D
b0 \
b101000000000000000000000000 C
b101000000000000000000000000 :
b101000000000000000000000000 V
b101000000000000000000000000 {
b101000000000000000000000000 &
b101000000000000000000000000 A
0""
06
b10 &"
b1010000000000000000000000000 5
b1010000000000000000000000000 M
b1010000000000000000000000000 W
b1010000000000000000000000000 [
b10 >
b10 U
b0 |
b0 '
b0 N
b1000 z
b1000 !
b1000 X
b1000001001010000000000000000000000000000 w
b1000001001010000000000000000000000000000 +
b1000001001010000000000000000000000000000 y
b0 /"
b1 1"
b111011000000 3"
b111011000000 8
b1 0"
b1 u
b1 2
b1 v
1$
b0 4"
1(
#500
0(
#550
b1 4"
1(
#600
0(
#650
0$
b10 4"
1(
#700
0(
#750
b11 4"
1(
#800
0(
#850
b101111010 ~
b101111010 1
b101111010 t
b1101000000000000000000000000000101111010 w
b1101000000000000000000000000000101111010 +
b1101000000000000000000000000000101111010 y
b10 u
b10 2
b10 v
b10 0"
1$
b0 4"
1(
#900
0(
#950
b1 4"
1(
#1000
0(
#1050
0$
b10 4"
1(
#1100
0(
#1150
b11 4"
1(
#1200
0(
#1250
b100000000000000000000000000 F
b100000000000000000000000000 <
b100000000000000000000000000 K
b100000000000000000000000000 Y
b100000000000000000000000000 "
b100000000000000000000000000 D
b100000000000000000000000000 \
b0 C
b0 :
b0 V
b0 {
b0 &
b0 A
1""
16
b0 ~
b0 1
b0 t
b0 &"
b1010110111101011010101100111 5
b1010110111101011010101100111 M
b1010110111101011010101100111 W
b1010110111101011010101100111 [
b0 >
b0 U
b11 |
b11 '
b11 N
b11111 z
b11111 !
b11111 X
b11111001100000000000000000000000000000000 w
b11111001100000000000000000000000000000000 +
b11111001100000000000000000000000000000000 y
b11 0"
b11 u
b11 2
b11 v
1$
b0 4"
1(
#1300
0(
#1350
b1 4"
1(
#1400
0(
#1450
0$
b10 4"
1(
#1500
0(
#1550
b11 4"
1(
#1600
0(
#1650
b1100000000000000000000000000 F
b1100000000000000000000000000 <
b1100000000000000000000000000 K
b1100000000000000000000000000 Y
b1100000000000000000000000000 "
b1100000000000000000000000000 D
b1100000000000000000000000000 \
b100 |
b100 '
b100 N
b100000 z
b100000 !
b100000 X
b100000010000000000000000000000000000000000 w
b100000010000000000000000000000000000000000 +
b100000010000000000000000000000000000000000 y
b100 u
b100 2
b100 v
b100 0"
1$
b0 4"
1(
#1700
0(
#1750
b1 4"
1(
#1800
0(
#1850
0$
b10 4"
1(
#1900
0(
#1950
b11 4"
1(
#2000
0(
#2050
b1000000000000000000000000000 F
b1000000000000000000000000000 <
b1000000000000000000000000000 K
b1000000000000000000000000000 Y
b1000000000000000000000000000 "
b1000000000000000000000000000 D
b1000000000000000000000000000 \
b101 |
b101 '
b101 N
b10101 z
b10101 !
b10101 X
b10101010100000000000000000000000000000000 w
b10101010100000000000000000000000000000000 +
b10101010100000000000000000000000000000000 y
b101 0"
b101 u
b101 2
b101 v
1$
b0 4"
1(
#2100
0(
#2150
b1 4"
1(
#2200
0(
#2250
0$
b10 4"
1(
#2300
0(
#2350
b11 4"
1(
#2400
0(
#2450
b110 |
b110 '
b110 N
b10110 z
b10110 !
b10110 X
b10110011000000000000000000000000000000000 w
b10110011000000000000000000000000000000000 +
b10110011000000000000000000000000000000000 y
b110 u
b110 2
b110 v
b110 0"
1$
b0 4"
1(
#2500
0(
#2550
b1 4"
1(
#2600
0(
#2650
0$
b10 4"
1(
#2700
0(
#2750
b11 4"
1(
#2800
0(
#2850
b0 F
b0 <
b0 K
b0 Y
b0 "
b0 D
b0 \
b1000000000000000000000000000 C
b1000000000000000000000000000 :
b1000000000000000000000000000 V
1#"
19
0""
06
b101 %"
b1000000000000000000000000000 4
b1000000000000000000000000000 B
b1000000000000000000000000000 L
b101 =
b101 T
b11 &"
b100000000000000000000000000 5
b100000000000000000000000000 M
b100000000000000000000000000 W
b100000000000000000000000000 [
b11 >
b11 U
b0 |
b0 '
b0 N
b111 z
b111 !
b111 X
b111001101010000000000000000000000000000 w
b111001101010000000000000000000000000000 +
b111001101010000000000000000000000000000 y
b111 0"
b111 u
b111 2
b111 v
1$
b0 4"
1(
#2900
0(
#2950
b1 4"
1(
#3000
0(
#3050
0$
b10 4"
1(
#3100
0(
#3150
b11 4"
1(
#3200
0(
#3250
b101110 ~
b101110 1
b101110 t
b1101000000000000000000000000000000101110 w
b1101000000000000000000000000000000101110 +
b1101000000000000000000000000000000101110 y
b1000 u
b1000 2
b1000 v
b1000 0"
1$
b0 4"
1(
#3300
0(
#3350
b1 4"
1(
#3400
0(
#3450
0$
b10 4"
1(
#3500
0(
#3550
b11 4"
1(
#3600
0(
#3650
1Z
1?
b0 ~
b0 1
b0 t
b100 z
b100 !
b100 X
b100001101010000000000000000000000000000 w
b100001101010000000000000000000000000000 +
b100001101010000000000000000000000000000 y
b1001 0"
b1001 u
b1001 2
b1001 v
1$
b0 4"
1(
#3700
0(
#3750
b1 4"
1(
#3800
0(
#3850
0$
b10 4"
1(
#3900
0(
#3950
b11 4"
1(
#4000
0(
#4050
1!"
13
b10001001 ~
b10001001 1
b10001001 t
b1101000000000000000000000000000010001001 w
b1101000000000000000000000000000010001001 +
b1101000000000000000000000000000010001001 y
b1010 u
b1010 2
b1010 v
1x
1@
b1010 0"
1$
b0 4"
1(
#4100
0(
#4150
b1 4"
1(
#4200
0(
#4250
0$
b10 4"
1(
#4300
0(
#4350
b11 4"
1(
#4400
0(
#4450
0Z
0?
0!"
03
b0 ~
b0 1
b0 t
b110 %"
b110 =
b110 T
b100 &"
b1100000000000000000000000000 5
b1100000000000000000000000000 M
b1100000000000000000000000000 W
b1100000000000000000000000000 [
b100 >
b100 U
b111 z
b111 !
b111 X
b111010001100000000000000000000000000000 w
b111010001100000000000000000000000000000 +
b111010001100000000000000000000000000000 y
b1011 0"
b10001001 u
b10001001 2
b10001001 v
1$
b0 4"
1(
#4500
0(
#4550
b1 4"
1(
#4600
0(
#4650
0$
b10 4"
1(
#4700
0(
#4750
b11 4"
1(
#4800
0(
#4850
b10101010 ~
b10101010 1
b10101010 t
b1101000000000000000000000000000010101010 w
b1101000000000000000000000000000010101010 +
b1101000000000000000000000000000010101010 y
b10001010 u
b10001010 2
b10001010 v
0x
0@
b1100 0"
1$
b0 4"
1(
#4900
0(
#4950
b1 4"
1(
#5000
0(
#5050
0$
b10 4"
1(
#5100
0(
#5150
b11 4"
1(
#5200
0(
#5250
b0 ~
b0 1
b0 t
b100 z
b100 !
b100 X
b100010001100000000000000000000000000000 w
b100010001100000000000000000000000000000 +
b100010001100000000000000000000000000000 y
b1101 0"
b10001011 u
b10001011 2
b10001011 v
1$
b0 4"
1(
#5300
0(
#5350
b1 4"
1(
#5400
0(
#5450
0$
b10 4"
1(
#5500
0(
#5550
b11 4"
1(
#5600
0(
#5650
b11000111 ~
b11000111 1
b11000111 t
b1101000000000000000000000000000011000111 w
b1101000000000000000000000000000011000111 +
b1101000000000000000000000000000011000111 y
b10001100 u
b10001100 2
b10001100 v
b1110 0"
1$
b0 4"
1(
#5700
0(
#5750
b1 4"
1(
#5800
0(
#5850
0$
b10 4"
1(
#5900
0(
#5950
b11 4"
1(
#6000
0(
#6050
b1010110111101011010101110110 F
b1010110111101011010101110110 <
b1010110111101011010101110110 K
b1010110111101011010101110110 Y
b1010110111101011010101110110 "
b1010110111101011010101110110 D
b1010110111101011010101110110 \
b0 C
b0 :
b0 V
0#"
09
1""
16
b0 ~
b0 1
b0 t
b0 %"
b1010110111101011010101100111 4
b1010110111101011010101100111 B
b1010110111101011010101100111 L
b0 =
b0 T
b0 &"
b1010110111101011010101100111 5
b1010110111101011010101100111 M
b1010110111101011010101100111 W
b1010110111101011010101100111 [
b0 >
b0 U
b100010 z
b100010 !
b100010 X
b100010000000000000000000000000000000000000 w
b100010000000000000000000000000000000000000 +
b100010000000000000000000000000000000000000 y
b1111 0"
b10001101 u
b10001101 2
b10001101 v
1$
b0 4"
1(
#6100
0(
#6150
b1 4"
1(
#6200
0(
#6250
0$
b10 4"
1(
#6300
0(
#6350
b11 4"
1(
#6400
0(
#6450
b1110 C
b1110 :
b1110 V
b1110 {
b1110 &
b1110 A
0""
06
b111 &"
b111 >
b111 U
b100101 z
b100101 !
b100101 X
b0 F
b0 <
b0 K
b0 Y
b0 "
b0 D
b0 \
b100101011100000000000000000000000011100000 w
b100101011100000000000000000000000011100000 +
b100101011100000000000000000000000011100000 y
b1010110111101011010101110110 4
b1010110111101011010101110110 B
b1010110111101011010101110110 L
b0 5
b0 M
b0 W
b0 [
b1010110111101011010101110110 G
b10001110 u
b10001110 2
b10001110 v
b10000 0"
1$
b0 4"
1(
#6500
0(
#6550
b1 4"
1(
#6600
0(
#6650
0$
b10 4"
1(
#6700
0(
#6750
b11 4"
1(
#6800
0(
#6850
b10010101 ~
b10010101 1
b10010101 t
b1101000000000000000000000000000010010101 w
b1101000000000000000000000000000010010101 +
b1101000000000000000000000000000010010101 y
b10001 0"
b10001111 u
b10001111 2
b10001111 v
1$
b0 4"
1(
#6900
0(
#6950
b1 4"
1(
#7000
0(
#7050
0$
b10 4"
1(
#7100
0(
#7150
b11 4"
1(
#7200
0(
#7250
b1 F
b1 <
b1 K
b1 Y
b1 "
b1 D
b1 \
b0 C
b0 :
b0 V
b0 {
b0 &
b0 A
1#"
19
1""
16
b0 ~
b0 1
b0 t
b111 %"
b0 4
b0 B
b0 L
b111 =
b111 T
b0 &"
b1010110111101011010101110110 5
b1010110111101011010101110110 M
b1010110111101011010101110110 W
b1010110111101011010101110110 [
b0 >
b0 U
b111 |
b111 '
b111 N
b101 z
b101 !
b101 X
b101011101110000000000000000000000000000 w
b101011101110000000000000000000000000000 +
b101011101110000000000000000000000000000 y
b10010000 u
b10010000 2
b10010000 v
b10010 0"
1$
b0 4"
1(
#7300
0(
#7350
b1 4"
1(
#7400
0(
#7450
0$
b10 4"
1(
#7500
0(
#7550
b11 4"
1(
#7600
0(
#7650
0#"
09
b0 %"
b0 =
b0 T
b1010 &"
b0 5
b0 M
b0 W
b0 [
b1010 >
b1010 U
b1010 |
b1010 '
b1010 N
b101010 z
b101010 !
b101010 X
b0 F
b0 <
b0 K
b0 Y
b0 "
b0 D
b0 \
b101010101010100000000000000000000000000000 w
b101010101010100000000000000000000000000000 +
b101010101010100000000000000000000000000000 y
b0 C
b0 :
b0 V
b10011 0"
b10010001 u
b10010001 2
b10010001 v
b1010110111101011010101110110 4
b1010110111101011010101110110 B
b1010110111101011010101110110 L
b1 %
b1 H
b1 ("
b1 J
1$
b0 4"
1(
#7700
0(
#7750
b1 4"
1(
#7800
0(
#7850
0$
b10 4"
1(
#7900
0(
#7950
b11 4"
1(
#8000
0(
#8050
b1 F
b1 <
b1 K
b1 Y
b1 "
b1 D
b1 \
b100110 z
b100110 !
b100110 X
b100110101010100000000000000000000000000000 w
b100110101010100000000000000000000000000000 +
b100110101010100000000000000000000000000000 y
b10010010 u
b10010010 2
b10010010 v
b10100 0"
1$
b0 4"
1(
#8100
0(
#8150
b1 4"
1(
#8200
0(
#8250
0$
b10 4"
1(
#8300
0(
#8350
b11 4"
1(
#8400
0(
#8450
1!"
13
b1100000000000000000000000000000000000000 w
b1100000000000000000000000000000000000000 +
b1100000000000000000000000000000000000000 y
b10101 0"
b10010011 u
b10010011 2
b10010011 v
b1 5
b1 M
b1 W
b1 [
b1 ,
b1 O
b1 *"
1$
b0 4"
1(
#8500
0(
#8550
b1 4"
1(
#8600
0(
#8650
0$
b10 4"
1(
#8700
0(
#8750
b11 4"
1(
#8800
0(
#8850
b1010000000000000000000000000 F
b1010000000000000000000000000 <
b1010000000000000000000000000 K
b1010000000000000000000000000 Y
b1010000000000000000000000000 "
b1010000000000000000000000000 D
b1010000000000000000000000000 \
0!"
03
b0 &"
b1010110111101011010101110110 5
b1010110111101011010101110110 M
b1010110111101011010101110110 W
b1010110111101011010101110110 [
b0 >
b0 U
b10 |
b10 '
b10 N
b1110 z
b1110 !
b1110 X
b1110001000000000000000000000000000000000 w
b1110001000000000000000000000000000000000 +
b1110001000000000000000000000000000000000 y
b0 u
b0 2
b0 v
b10110 0"
1$
b0 4"
1(
#8900
0(
#8950
b1 4"
1(
#9000
0(
#9050
0$
b10 4"
1(
#9100
0(
#9150
b11 4"
1(
#9200
0(
#9250
b0 F
b0 <
b0 K
b0 Y
b0 "
b0 D
b0 \
b101000000000000000000000000 C
b101000000000000000000000000 :
b101000000000000000000000000 V
b101000000000000000000000000 {
b101000000000000000000000000 &
b101000000000000000000000000 A
0""
06
b10 &"
b1010000000000000000000000000 5
b1010000000000000000000000000 M
b1010000000000000000000000000 W
b1010000000000000000000000000 [
b10 >
b10 U
b0 |
b0 '
b0 N
b1000 z
b1000 !
b1000 X
b1000001001010000000000000000000000000000 w
b1000001001010000000000000000000000000000 +
b1000001001010000000000000000000000000000 y
b10111 0"
b1 u
b1 2
b1 v
1$
b0 4"
1(
#9300
0(
#9350
b1 4"
1(
#9400
0(
#9450
0$
b10 4"
1(
#9500
0(
#9550
b11 4"
1(
#9600
0(
#9650
b101111010 ~
b101111010 1
b101111010 t
b1101000000000000000000000000000101111010 w
b1101000000000000000000000000000101111010 +
b1101000000000000000000000000000101111010 y
b10 u
b10 2
b10 v
b11000 0"
1$
b0 4"
1(
#9700
0(
#9750
b1 4"
1(
#9800
0(
#9850
0$
b10 4"
1(
#9900
0(
#9950
b11 4"
1(
#10000
0(
#10050
b100000000000000000000000000 F
b100000000000000000000000000 <
b100000000000000000000000000 K
b100000000000000000000000000 Y
b100000000000000000000000000 "
b100000000000000000000000000 D
b100000000000000000000000000 \
b0 C
b0 :
b0 V
b0 {
b0 &
b0 A
1""
16
b0 ~
b0 1
b0 t
b0 &"
b1010110111101011010101110110 5
b1010110111101011010101110110 M
b1010110111101011010101110110 W
b1010110111101011010101110110 [
b0 >
b0 U
b11 |
b11 '
b11 N
b11111 z
b11111 !
b11111 X
b11111001100000000000000000000000000000000 w
b11111001100000000000000000000000000000000 +
b11111001100000000000000000000000000000000 y
b11001 0"
b11 u
b11 2
b11 v
1$
b0 4"
1(
#10100
0(
#10150
b1 4"
1(
#10200
0(
#10250
0$
b10 4"
1(
#10300
0(
#10350
b11 4"
1(
#10400
0(
#10450
b1000000000000000000000000000 F
b1000000000000000000000000000 <
b1000000000000000000000000000 K
b1000000000000000000000000000 Y
b1000000000000000000000000000 "
b1000000000000000000000000000 D
b1000000000000000000000000000 \
b100 |
b100 '
b100 N
b100000 z
b100000 !
b100000 X
b100000010000000000000000000000000000000000 w
b100000010000000000000000000000000000000000 +
b100000010000000000000000000000000000000000 y
b100 u
b100 2
b100 v
b11010 0"
1$
b0 4"
1(
#10500
0(
#10550
b1 4"
1(
#10600
0(
#10650
0$
b10 4"
1(
#10700
0(
#10750
b11 4"
1(
#10800
0(
#10850
b101 |
b101 '
b101 N
b10101 z
b10101 !
b10101 X
b10101010100000000000000000000000000000000 w
b10101010100000000000000000000000000000000 +
b10101010100000000000000000000000000000000 y
b11011 0"
b101 u
b101 2
b101 v
1$
b0 4"
1(
#10900
0(
#10950
b1 4"
1(
#11000
0(
#11050
0$
b10 4"
1(
#11100
0(
#11150
b11 4"
1(
#11200
0(
#11250
b110 |
b110 '
b110 N
b10110 z
b10110 !
b10110 X
b10110011000000000000000000000000000000000 w
b10110011000000000000000000000000000000000 +
b10110011000000000000000000000000000000000 y
b110 u
b110 2
b110 v
b11100 0"
1$
b0 4"
1(
#11300
0(
#11350
b1 4"
1(
#11400
0(
#11450
0$
b10 4"
1(
#11500
0(
#11550
b11 4"
1(
#11600
0(
#11650
b0 F
b0 <
b0 K
b0 Y
b0 "
b0 D
b0 \
b1000000000000000000000000000 C
b1000000000000000000000000000 :
b1000000000000000000000000000 V
1#"
19
0""
06
b101 %"
b1000000000000000000000000000 4
b1000000000000000000000000000 B
b1000000000000000000000000000 L
b101 =
b101 T
b11 &"
b100000000000000000000000000 5
b100000000000000000000000000 M
b100000000000000000000000000 W
b100000000000000000000000000 [
b11 >
b11 U
b0 |
b0 '
b0 N
b111 z
b111 !
b111 X
b111001101010000000000000000000000000000 w
b111001101010000000000000000000000000000 +
b111001101010000000000000000000000000000 y
b11101 0"
b111 u
b111 2
b111 v
1$
b0 4"
1(
#11700
0(
#11750
b1 4"
1(
#11800
0(
#11850
0$
b10 4"
1(
#11900
0(
#11950
b11 4"
1(
#12000
0(
#12050
b101110 ~
b101110 1
b101110 t
b1101000000000000000000000000000000101110 w
b1101000000000000000000000000000000101110 +
b1101000000000000000000000000000000101110 y
b1000 u
b1000 2
b1000 v
b11110 0"
1$
b0 4"
1(
#12100
0(
#12150
b1 4"
1(
#12200
0(
#12250
0$
b10 4"
1(
#12300
0(
#12350
b11 4"
1(
#12400
0(
#12450
1Z
1?
b0 ~
b0 1
b0 t
b100 z
b100 !
b100 X
b100001101010000000000000000000000000000 w
b100001101010000000000000000000000000000 +
b100001101010000000000000000000000000000 y
b11111 0"
b1001 u
b1001 2
b1001 v
1$
b0 4"
1(
#12500
0(
#12550
b1 4"
1(
#12600
0(
#12650
0$
b10 4"
1(
#12700
0(
#12750
b11 4"
1(
#12800
0(
#12850
1!"
13
b10001001 ~
b10001001 1
b10001001 t
b1101000000000000000000000000000010001001 w
b1101000000000000000000000000000010001001 +
b1101000000000000000000000000000010001001 y
b1010 u
b1010 2
b1010 v
1x
1@
b100000 0"
1$
b0 4"
1(
#12900
0(
#12950
b1 4"
1(
#13000
0(
#13050
0$
b10 4"
1(
#13100
0(
#13150
b11 4"
1(
#13200
0(
#13250
0!"
03
b0 ~
b0 1
b0 t
b110 %"
b110 =
b110 T
b100 &"
b1000000000000000000000000000 5
b1000000000000000000000000000 M
b1000000000000000000000000000 W
b1000000000000000000000000000 [
b100 >
b100 U
b111 z
b111 !
b111 X
b111010001100000000000000000000000000000 w
b111010001100000000000000000000000000000 +
b111010001100000000000000000000000000000 y
b100001 0"
b10001001 u
b10001001 2
b10001001 v
1$
b0 4"
1(
#13300
0(
#13350
b1 4"
1(
#13400
0(
#13450
0$
b10 4"
1(
#13500
0(
#13550
b11 4"
1(
#13600
0(
#13650
1!"
13
b10101010 ~
b10101010 1
b10101010 t
b1101000000000000000000000000000010101010 w
b1101000000000000000000000000000010101010 +
b1101000000000000000000000000000010101010 y
b10001010 u
b10001010 2
b10001010 v
b100010 0"
1$
b0 4"
1(
#13700
0(
#13750
b1 4"
1(
#13800
0(
#13850
0$
b10 4"
1(
#13900
0(
#13950
b11 4"
1(
#14000
0(
#14050
b110110111101011010101111010 F
b110110111101011010101111010 <
b110110111101011010101111010 K
0Z
0?
b110110111101011010101111010 Y
b110110111101011010101111010 "
b110110111101011010101111010 D
b110110111101011010101111010 \
b0 C
b0 :
b0 V
0#"
09
1""
16
0!"
03
b0 ~
b0 1
b0 t
b0 %"
b1010110111101011010101110110 4
b1010110111101011010101110110 B
b1010110111101011010101110110 L
b0 =
b0 T
b0 &"
b1010110111101011010101110110 5
b1010110111101011010101110110 M
b1010110111101011010101110110 W
b1010110111101011010101110110 [
b0 >
b0 U
b100100 z
b100100 !
b100100 X
b100100000000000000000000000000000000000000 w
b100100000000000000000000000000000000000000 +
b100100000000000000000000000000000000000000 y
b100011 0"
b10101010 u
b10101010 2
b10101010 v
1$
b0 4"
1(
#14100
0(
#14150
b1 4"
1(
#14200
0(
#14250
0$
b10 4"
1(
#14300
0(
#14350
b11 4"
1(
#14400
0(
#14450
0Z
0?
b1110 C
b1110 :
b1110 V
b1110 {
b1110 &
b1110 A
0""
06
b111 &"
b111 >
b111 U
b100101 z
b100101 !
b100101 X
b0 F
b0 <
b0 K
b0 Y
b0 "
b0 D
b0 \
b100101011100000000000000000000000011100000 w
b100101011100000000000000000000000011100000 +
b100101011100000000000000000000000011100000 y
b110110111101011010101111010 4
b110110111101011010101111010 B
b110110111101011010101111010 L
b1 5
b1 M
b1 W
b1 [
b110110111101011010101111010 G
b10101011 u
b10101011 2
b10101011 v
0x
0@
b100100 0"
1$
b0 4"
1(
#14500
0(
#14550
b1 4"
1(
#14600
0(
#14650
0$
b10 4"
1(
#14700
0(
#14750
b11 4"
1(
#14800
0(
#14850
b10110001 ~
b10110001 1
b10110001 t
b1101000000000000000000000000000010110001 w
b1101000000000000000000000000000010110001 +
b1101000000000000000000000000000010110001 y
b100101 0"
b10101100 u
b10101100 2
b10101100 v
1$
b0 4"
1(
#14900
0(
#14950
b1 4"
1(
#15000
0(
#15050
0$
b10 4"
1(
#15100
0(
#15150
b11 4"
1(
#15200
0(
#15250
b10 F
b10 <
b10 K
b10 Y
b10 "
b10 D
b10 \
b1 C
b1 :
b1 V
b0 {
b0 &
b0 A
1#"
19
1""
16
b0 ~
b0 1
b0 t
b111 %"
b1 4
b1 B
b1 L
b111 =
b111 T
b0 &"
b110110111101011010101111010 5
b110110111101011010101111010 M
b110110111101011010101111010 W
b110110111101011010101111010 [
b0 >
b0 U
b111 |
b111 '
b111 N
b101 z
b101 !
b101 X
b101011101110000000000000000000000000000 w
b101011101110000000000000000000000000000 +
b101011101110000000000000000000000000000 y
b10101101 u
b10101101 2
b10101101 v
b100110 0"
1$
b0 4"
1(
#15300
0(
#15350
b1 4"
1(
#15400
0(
#15450
0$
b10 4"
1(
#15500
0(
#15550
b11 4"
1(
#15600
0(
